{
  "startId": "org.unidata.mdm.draft[DRAFT_PUBLISH_START]",
  "subjectId": "",
  "description": "org.unidata.mdm.draft.draft.publish.start.description",
  "segments": [
    {
      "segmentType": "START",
      "id": "org.unidata.mdm.draft[DRAFT_PUBLISH_START]"
    },
    {
      "segmentType": "POINT",
      "id": "org.unidata.mdm.draft[DRAFT_PUBLISH_POINT]"
    },
    {
      "segmentType": "FINISH",
      "id": "org.unidata.mdm.draft[DRAFT_PUBLISH_FINISH]"
    }
  ]
}